&input
nc=2,nfreq=1024,tl=10.,aw=2.,nr=12,ns=1,xl=1000.,ikmax=100000,
latlon=.false.,freesurface=.false.,sourcefile="source_xyz.tsv",statfile="station_xyz.tsv"
//
0.	3.	1.87	2.4	1000.	500.
5.	5.	2.886	2.7	1000.	500.

