  10/10/19 10:40:21 for program FOCMEC
 FocMec run from O&G repo
 Input from a file 19702_ll.inp
 eventID:19702, runAtTime:2019-10-07T20:09:41.265764Z

 Statn  Azimuth  TOAng   Key  Log10 (S/P)  NumPol  DenTOAng  Comment
  DR20    49.6     93.1   D
  DR21   247.1     92.8   D
  DR08    19.7     91.3   D
  DR18    69.4     93.7   D
  DR05    29.0    129.5   D
  DR06   132.2     97.8   C
  DR04   233.8     97.6   D
  DR10   354.1     91.3   C
  DR07   357.7     92.1   C
  DR19    45.3     93.9   D
  DR13    11.6     93.4   D
  DR14   299.8     93.9   C
 Polarities/Errors:  P 012/00  SV 000/00  SH 000/00
 There are no amplitude ratio data
 The minimum, increment and maximum B axis trend are     0.00    5.00  355.00
 The limits for the B axis plunge are     0.00    5.00   90.00
 The limits for the angle of the A axis are     0.00    5.00   85.00
 ++++++++++++++++++++++++++++++++++++++++++++++++++++++++++++++++++++++++++++

     Dip,Strike,Rake     15.00   270.00    -0.00
     Dip,Strike,Rake     90.00   180.00   105.00   Auxiliary Plane
     Lower Hem. Trend, Plunge of A,N    270.00     0.00   180.00    75.00
     Lower Hem. Trend & Plunge of B      0.00    15.00
     Lower Hem. Trend, Plunge of P,T    255.49    43.08   104.51    43.08
     MRR = 0.00  MTT = 0.00  MPP = 0.00  MRT = 0.00  MRP =-0.97  MTP = 0.26
N angle with plane defined by vertical & B trend:  0.0
 +++++++++++++++++++++++++++++++++++++++++++++++++++++++++++++++++++++++++++++

     Dip,Strike,Rake     15.00   275.14     0.00
     Dip,Strike,Rake     90.00   185.14   105.00   Auxiliary Plane
     Lower Hem. Trend, Plunge of A,N    275.14     0.00   185.14    75.00
     Lower Hem. Trend & Plunge of B      5.14    15.00
     Lower Hem. Trend, Plunge of P,T    260.63    43.08   109.65    43.08
     MRR = 0.00  MTT = 0.05  MPP =-0.05  MRT =-0.09  MRP =-0.96  MTP = 0.25
N angle with plane defined by vertical & B trend:  0.0
 +++++++++++++++++++++++++++++++++++++++++++++++++++++++++++++++++++++++++++++

     Dip,Strike,Rake     15.00   280.29     0.00
     Dip,Strike,Rake     90.00   190.29   105.00   Auxiliary Plane
     Lower Hem. Trend, Plunge of A,N    280.29     0.00   190.29    75.00
     Lower Hem. Trend & Plunge of B     10.29    15.00
     Lower Hem. Trend, Plunge of P,T    265.77    43.08   114.80    43.08
     MRR = 0.00  MTT = 0.09  MPP =-0.09  MRT =-0.17  MRP =-0.95  MTP = 0.24
N angle with plane defined by vertical & B trend:  0.0
 +++++++++++++++++++++++++++++++++++++++++++++++++++++++++++++++++++++++++++++

     Dip,Strike,Rake     80.34   249.47   -74.78
     Dip,Strike,Rake     17.96    11.12  -147.05   Auxiliary Plane
     Lower Hem. Trend, Plunge of A,N    281.12    72.04   159.47     9.66
     Lower Hem. Trend & Plunge of B     66.86    15.00
     Lower Hem. Trend, Plunge of P,T    177.14    52.30   326.59    33.64
     MRR =-0.32  MTT = 0.11  MPP = 0.21  MRT = 0.87  MRP = 0.28  MTP = 0.30
A angle with plane defined by vertical & B trend: 10.0
 +++++++++++++++++++++++++++++++++++++++++++++++++++++++++++++++++++++++++++++

     Dip,Strike,Rake     80.34   254.61   -74.78
     Dip,Strike,Rake     17.96    16.27  -147.05   Auxiliary Plane
     Lower Hem. Trend, Plunge of A,N    286.27    72.04   164.61     9.66
     Lower Hem. Trend & Plunge of B     72.00    15.00
     Lower Hem. Trend, Plunge of P,T    182.29    52.30   331.73    33.64
     MRR =-0.32  MTT = 0.16  MPP = 0.15  MRT = 0.89  MRP = 0.20  MTP = 0.30
A angle with plane defined by vertical & B trend: 10.0
 +++++++++++++++++++++++++++++++++++++++++++++++++++++++++++++++++++++++++++++

     Dip,Strike,Rake     85.17   258.44   -74.95
     Dip,Strike,Rake     15.79     5.82  -161.98   Auxiliary Plane
     Lower Hem. Trend, Plunge of A,N    275.82    74.21   168.44     4.83
     Lower Hem. Trend & Plunge of B     77.14    15.00
     Lower Hem. Trend, Plunge of P,T    184.29    47.73   334.89    38.38
     MRR =-0.16  MTT = 0.05  MPP = 0.11  MRT = 0.94  MRP = 0.17  MTP = 0.27
A angle with plane defined by vertical & B trend:  5.0
 +++++++++++++++++++++++++++++++++++++++++++++++++++++++++++++++++++++++++++++

     Dip,Strike,Rake     80.34   259.76   -74.78
     Dip,Strike,Rake     17.96    21.41  -147.05   Auxiliary Plane
     Lower Hem. Trend, Plunge of A,N    291.41    72.04   169.76     9.66
     Lower Hem. Trend & Plunge of B     77.14    15.00
     Lower Hem. Trend, Plunge of P,T    187.43    52.30   336.87    33.64
     MRR =-0.32  MTT = 0.22  MPP = 0.10  MRT = 0.90  MRP = 0.12  MTP = 0.30
A angle with plane defined by vertical & B trend: 10.0
 +++++++++++++++++++++++++++++++++++++++++++++++++++++++++++++++++++++++++++++

     Dip,Strike,Rake     85.17   263.58   -74.95
     Dip,Strike,Rake     15.79    10.96  -161.98   Auxiliary Plane
     Lower Hem. Trend, Plunge of A,N    280.96    74.21   173.58     4.83
     Lower Hem. Trend & Plunge of B     82.29    15.00
     Lower Hem. Trend, Plunge of P,T    189.43    47.73   340.03    38.38
     MRR =-0.16  MTT = 0.10  MPP = 0.06  MRT = 0.95  MRP = 0.08  MTP = 0.27
A angle with plane defined by vertical & B trend:  5.0
 +++++++++++++++++++++++++++++++++++++++++++++++++++++++++++++++++++++++++++++

     Dip,Strike,Rake     85.17   268.73   -74.95
     Dip,Strike,Rake     15.79    16.11  -161.98   Auxiliary Plane
     Lower Hem. Trend, Plunge of A,N    286.11    74.21   178.73     4.83
     Lower Hem. Trend & Plunge of B     87.43    15.00
     Lower Hem. Trend, Plunge of P,T    194.57    47.73   345.18    38.38
     MRR =-0.16  MTT = 0.15  MPP = 0.01  MRT = 0.95  MRP =-0.00  MTP = 0.26
A angle with plane defined by vertical & B trend:  5.0
 +++++++++++++++++++++++++++++++++++++++++++++++++++++++++++++++++++++++++++++

     Dip,Strike,Rake     85.17   273.87   -74.95
     Dip,Strike,Rake     15.79    21.25  -161.98   Auxiliary Plane
     Lower Hem. Trend, Plunge of A,N    291.25    74.21   183.87     4.83
     Lower Hem. Trend & Plunge of B     92.57    15.00
     Lower Hem. Trend, Plunge of P,T    199.71    47.73   350.32    38.38
     MRR =-0.16  MTT = 0.20  MPP =-0.03  MRT = 0.95  MRP =-0.09  MTP = 0.25
A angle with plane defined by vertical & B trend:  5.0
 +++++++++++++++++++++++++++++++++++++++++++++++++++++++++++++++++++++++++++++

     Dip,Strike,Rake     90.00    97.71    75.00
     Dip,Strike,Rake     15.00     7.71   180.00   Auxiliary Plane
     Lower Hem. Trend, Plunge of A,N    277.71    75.00   187.71     0.00
     Lower Hem. Trend & Plunge of B     97.71    15.00
     Lower Hem. Trend, Plunge of P,T    202.23    43.08   353.20    43.08
     MRR = 0.00  MTT = 0.07  MPP =-0.07  MRT = 0.96  MRP =-0.13  MTP = 0.25
A angle with plane defined by vertical & B trend:  0.0
 +++++++++++++++++++++++++++++++++++++++++++++++++++++++++++++++++++++++++++++

     Dip,Strike,Rake     90.00   102.86    75.00
     Dip,Strike,Rake     15.00    12.86   180.00   Auxiliary Plane
     Lower Hem. Trend, Plunge of A,N    282.86    75.00   192.86     0.00
     Lower Hem. Trend & Plunge of B    102.86    15.00
     Lower Hem. Trend, Plunge of P,T    207.37    43.08   358.35    43.08
     MRR = 0.00  MTT = 0.11  MPP =-0.11  MRT = 0.94  MRP =-0.21  MTP = 0.23
A angle with plane defined by vertical & B trend:  0.0
 +++++++++++++++++++++++++++++++++++++++++++++++++++++++++++++++++++++++++++++

     Dip,Strike,Rake     90.00   108.00    75.00
     Dip,Strike,Rake     15.00    18.00   180.00   Auxiliary Plane
     Lower Hem. Trend, Plunge of A,N    288.00    75.00   198.00     0.00
     Lower Hem. Trend & Plunge of B    108.00    15.00
     Lower Hem. Trend, Plunge of P,T    212.51    43.08     3.49    43.08
     MRR = 0.00  MTT = 0.15  MPP =-0.15  MRT = 0.92  MRP =-0.30  MTP = 0.21
A angle with plane defined by vertical & B trend:  0.0
 +++++++++++++++++++++++++++++++++++++++++++++++++++++++++++++++++++++++++++++

     Dip,Strike,Rake     90.00   113.14    75.00
     Dip,Strike,Rake     15.00    23.14   180.00   Auxiliary Plane
     Lower Hem. Trend, Plunge of A,N    293.14    75.00   203.14     0.00
     Lower Hem. Trend & Plunge of B    113.14    15.00
     Lower Hem. Trend, Plunge of P,T    217.65    43.08     8.63    43.08
     MRR = 0.00  MTT = 0.19  MPP =-0.19  MRT = 0.89  MRP =-0.38  MTP = 0.18
A angle with plane defined by vertical & B trend:  0.0
 +++++++++++++++++++++++++++++++++++++++++++++++++++++++++++++++++++++++++++++

     Dip,Strike,Rake     85.17   116.99    74.95
     Dip,Strike,Rake     15.79     9.61   161.98   Auxiliary Plane
     Lower Hem. Trend, Plunge of A,N    279.61    74.21    26.99     4.83
     Lower Hem. Trend & Plunge of B    118.29    15.00
     Lower Hem. Trend, Plunge of P,T    220.54    38.38    11.14    47.73
     MRR = 0.16  MTT = 0.08  MPP =-0.24  MRT = 0.86  MRP =-0.41  MTP = 0.22
N angle with plane defined by vertical & B trend: 85.0
 +++++++++++++++++++++++++++++++++++++++++++++++++++++++++++++++++++++++++++++

     Dip,Strike,Rake     20.00   270.00    -0.00
     Dip,Strike,Rake     90.00   180.00   110.00   Auxiliary Plane
     Lower Hem. Trend, Plunge of A,N    270.00     0.00   180.00    70.00
     Lower Hem. Trend & Plunge of B      0.00    20.00
     Lower Hem. Trend, Plunge of P,T    251.12    41.64   108.88    41.64
     MRR = 0.00  MTT = 0.00  MPP = 0.00  MRT = 0.00  MRP =-0.94  MTP = 0.34
N angle with plane defined by vertical & B trend:  0.0
 +++++++++++++++++++++++++++++++++++++++++++++++++++++++++++++++++++++++++++++

     Dip,Strike,Rake     20.59   284.35    13.47
     Dip,Strike,Rake     85.30   181.71   110.07   Auxiliary Plane
     Lower Hem. Trend, Plunge of A,N     91.71     4.70   194.35    69.41
     Lower Hem. Trend & Plunge of B      0.00    20.00
     Lower Hem. Trend, Plunge of P,T    253.99    37.16   112.18    46.04
     MRR = 0.15  MTT = 0.02  MPP =-0.17  MRT =-0.06  MRP =-0.93  MTP = 0.34
N angle with plane defined by vertical & B trend:  5.0
 +++++++++++++++++++++++++++++++++++++++++++++++++++++++++++++++++++++++++++++

     Dip,Strike,Rake     20.59   255.65   -13.47
     Dip,Strike,Rake     85.30   358.29  -110.07   Auxiliary Plane
     Lower Hem. Trend, Plunge of A,N    268.29     4.70   165.65    69.41
     Lower Hem. Trend & Plunge of B      0.00    20.00
     Lower Hem. Trend, Plunge of P,T    247.82    46.04   106.01    37.16
     MRR =-0.15  MTT =-0.02  MPP = 0.17  MRT = 0.06  MRP =-0.93  MTP = 0.34
A angle with plane defined by vertical & B trend: 85.0
 +++++++++++++++++++++++++++++++++++++++++++++++++++++++++++++++++++++++++++++

     Dip,Strike,Rake     20.00   275.29     0.00
     Dip,Strike,Rake     90.00   185.29   110.00   Auxiliary Plane
     Lower Hem. Trend, Plunge of A,N    275.29     0.00   185.29    70.00
     Lower Hem. Trend & Plunge of B      5.29    20.00
     Lower Hem. Trend, Plunge of P,T    256.41    41.64   114.18    41.64
     MRR = 0.00  MTT = 0.06  MPP =-0.06  MRT =-0.09  MRP =-0.94  MTP = 0.34
N angle with plane defined by vertical & B trend:  0.0
 +++++++++++++++++++++++++++++++++++++++++++++++++++++++++++++++++++++++++++++

     Dip,Strike,Rake     20.59   289.64    13.47
     Dip,Strike,Rake     85.30   187.01   110.07   Auxiliary Plane
     Lower Hem. Trend, Plunge of A,N     97.01     4.70   199.64    69.41
     Lower Hem. Trend & Plunge of B      5.29    20.00
     Lower Hem. Trend, Plunge of P,T    259.28    37.16   117.47    46.04
     MRR = 0.15  MTT = 0.08  MPP =-0.23  MRT =-0.14  MRP =-0.92  MTP = 0.31
N angle with plane defined by vertical & B trend:  5.0
 +++++++++++++++++++++++++++++++++++++++++++++++++++++++++++++++++++++++++++++

     Dip,Strike,Rake     20.59   260.95   -13.47
     Dip,Strike,Rake     85.30     3.58  -110.07   Auxiliary Plane
     Lower Hem. Trend, Plunge of A,N    273.58     4.70   170.95    69.41
     Lower Hem. Trend & Plunge of B      5.29    20.00
     Lower Hem. Trend, Plunge of P,T    253.12    46.04   111.31    37.16
     MRR =-0.15  MTT = 0.04  MPP = 0.11  MRT =-0.03  MRP =-0.93  MTP = 0.35
A angle with plane defined by vertical & B trend: 85.0
 +++++++++++++++++++++++++++++++++++++++++++++++++++++++++++++++++++++++++++++

     Dip,Strike,Rake     20.00   280.59     0.00
     Dip,Strike,Rake     90.00   190.59   110.00   Auxiliary Plane
     Lower Hem. Trend, Plunge of A,N    280.59     0.00   190.59    70.00
     Lower Hem. Trend & Plunge of B     10.59    20.00
     Lower Hem. Trend, Plunge of P,T    261.71    41.64   119.47    41.64
     MRR = 0.00  MTT = 0.12  MPP =-0.12  MRT =-0.17  MRP =-0.92  MTP = 0.32
N angle with plane defined by vertical & B trend:  0.0
 +++++++++++++++++++++++++++++++++++++++++++++++++++++++++++++++++++++++++++++

     Dip,Strike,Rake     20.59   266.24   -13.47
     Dip,Strike,Rake     85.30     8.87  -110.07   Auxiliary Plane
     Lower Hem. Trend, Plunge of A,N    278.87     4.70   176.24    69.41
     Lower Hem. Trend & Plunge of B     10.59    20.00
     Lower Hem. Trend, Plunge of P,T    258.41    46.04   116.60    37.16
     MRR =-0.15  MTT = 0.11  MPP = 0.05  MRT =-0.12  MRP =-0.92  MTP = 0.35
A angle with plane defined by vertical & B trend: 85.0
 +++++++++++++++++++++++++++++++++++++++++++++++++++++++++++++++++++++++++++++

     Dip,Strike,Rake     75.92   248.77   -69.35
     Dip,Strike,Rake     24.81    11.61  -144.58   Auxiliary Plane
     Lower Hem. Trend, Plunge of A,N    281.61    65.19   158.77    14.08
     Lower Hem. Trend & Plunge of B     63.53    20.00
     Lower Hem. Trend, Plunge of P,T    184.17    54.47   322.36    28.02
     MRR =-0.44  MTT = 0.15  MPP = 0.29  MRT = 0.80  MRP = 0.22  MTP = 0.40
A angle with plane defined by vertical & B trend: 15.0
 +++++++++++++++++++++++++++++++++++++++++++++++++++++++++++++++++++++++++++++

     Dip,Strike,Rake     80.61   252.27   -69.72
     Dip,Strike,Rake     22.27     6.10  -154.49   Auxiliary Plane
     Lower Hem. Trend, Plunge of A,N    276.10    67.73   162.27     9.39
     Lower Hem. Trend & Plunge of B     68.82    20.00
     Lower Hem. Trend, Plunge of P,T    184.86    50.33   325.36    32.61
     MRR =-0.30  MTT = 0.08  MPP = 0.23  MRT = 0.86  MRP = 0.22  MTP = 0.37
A angle with plane defined by vertical & B trend: 10.0
 +++++++++++++++++++++++++++++++++++++++++++++++++++++++++++++++++++++++++++++

     Dip,Strike,Rake     75.92   254.06   -69.35
     Dip,Strike,Rake     24.81    16.90  -144.58   Auxiliary Plane
     Lower Hem. Trend, Plunge of A,N    286.90    65.19   164.06    14.08
     Lower Hem. Trend & Plunge of B     68.82    20.00
     Lower Hem. Trend, Plunge of P,T    189.47    54.47   327.65    28.02
     MRR =-0.44  MTT = 0.23  MPP = 0.21  MRT = 0.82  MRP = 0.14  MTP = 0.41
A angle with plane defined by vertical & B trend: 15.0
 +++++++++++++++++++++++++++++++++++++++++++++++++++++++++++++++++++++++++++++

     Dip,Strike,Rake     80.61   257.57   -69.72
     Dip,Strike,Rake     22.27    11.39  -154.49   Auxiliary Plane
     Lower Hem. Trend, Plunge of A,N    281.39    67.73   167.57     9.39
     Lower Hem. Trend & Plunge of B     74.12    20.00
     Lower Hem. Trend, Plunge of P,T    190.15    50.33   330.65    32.61
     MRR =-0.30  MTT = 0.14  MPP = 0.16  MRT = 0.88  MRP = 0.14  MTP = 0.37
A angle with plane defined by vertical & B trend: 10.0
 +++++++++++++++++++++++++++++++++++++++++++++++++++++++++++++++++++++++++++++

     Dip,Strike,Rake     85.30   261.13   -69.93
     Dip,Strike,Rake     20.59     3.76  -166.53   Auxiliary Plane
     Lower Hem. Trend, Plunge of A,N    273.76    69.41   171.13     4.70
     Lower Hem. Trend & Plunge of B     79.41    20.00
     Lower Hem. Trend, Plunge of P,T    191.59    46.04   333.40    37.16
     MRR =-0.15  MTT = 0.05  MPP = 0.11  MRT = 0.92  MRP = 0.12  MTP = 0.35
A angle with plane defined by vertical & B trend:  5.0
 +++++++++++++++++++++++++++++++++++++++++++++++++++++++++++++++++++++++++++++

     Dip,Strike,Rake     80.61   262.86   -69.72
     Dip,Strike,Rake     22.27    16.68  -154.49   Auxiliary Plane
     Lower Hem. Trend, Plunge of A,N    286.68    67.73   172.86     9.39
     Lower Hem. Trend & Plunge of B     79.41    20.00
     Lower Hem. Trend, Plunge of P,T    195.45    50.33   335.94    32.61
     MRR =-0.30  MTT = 0.21  MPP = 0.09  MRT = 0.89  MRP = 0.05  MTP = 0.37
A angle with plane defined by vertical & B trend: 10.0
 +++++++++++++++++++++++++++++++++++++++++++++++++++++++++++++++++++++++++++++

     Dip,Strike,Rake     85.30   266.42   -69.93
     Dip,Strike,Rake     20.59     9.05  -166.53   Auxiliary Plane
     Lower Hem. Trend, Plunge of A,N    279.05    69.41   176.42     4.70
     Lower Hem. Trend & Plunge of B     84.71    20.00
     Lower Hem. Trend, Plunge of P,T    196.88    46.04   338.69    37.16
     MRR =-0.15  MTT = 0.11  MPP = 0.04  MRT = 0.93  MRP = 0.03  MTP = 0.35
A angle with plane defined by vertical & B trend:  5.0
 +++++++++++++++++++++++++++++++++++++++++++++++++++++++++++++++++++++++++++++

     Dip,Strike,Rake     85.30   271.71   -69.93
     Dip,Strike,Rake     20.59    14.35  -166.53   Auxiliary Plane
     Lower Hem. Trend, Plunge of A,N    284.35    69.41   181.71     4.70
     Lower Hem. Trend & Plunge of B     90.00    20.00
     Lower Hem. Trend, Plunge of P,T    202.18    46.04   343.99    37.16
     MRR =-0.15  MTT = 0.17  MPP =-0.02  MRT = 0.93  MRP =-0.06  MTP = 0.34
A angle with plane defined by vertical & B trend:  5.0
 +++++++++++++++++++++++++++++++++++++++++++++++++++++++++++++++++++++++++++++

     Dip,Strike,Rake     90.00    95.29    70.00
     Dip,Strike,Rake     20.00     5.29   180.00   Auxiliary Plane
     Lower Hem. Trend, Plunge of A,N    275.29    70.00   185.29     0.00
     Lower Hem. Trend & Plunge of B     95.29    20.00
     Lower Hem. Trend, Plunge of P,T    204.18    41.64   346.41    41.64
     MRR = 0.00  MTT = 0.06  MPP =-0.06  MRT = 0.94  MRP =-0.09  MTP = 0.34
A angle with plane defined by vertical & B trend:  0.0
 +++++++++++++++++++++++++++++++++++++++++++++++++++++++++++++++++++++++++++++

     Dip,Strike,Rake     85.30   277.01   -69.93
     Dip,Strike,Rake     20.59    19.64  -166.53   Auxiliary Plane
     Lower Hem. Trend, Plunge of A,N    289.64    69.41   187.01     4.70
     Lower Hem. Trend & Plunge of B     95.29    20.00
     Lower Hem. Trend, Plunge of P,T    207.47    46.04   349.28    37.16
     MRR =-0.15  MTT = 0.23  MPP =-0.08  MRT = 0.92  MRP =-0.14  MTP = 0.31
A angle with plane defined by vertical & B trend:  5.0
 +++++++++++++++++++++++++++++++++++++++++++++++++++++++++++++++++++++++++++++

     Dip,Strike,Rake     90.00   100.59    70.00
     Dip,Strike,Rake     20.00    10.59   180.00   Auxiliary Plane
     Lower Hem. Trend, Plunge of A,N    280.59    70.00   190.59     0.00
     Lower Hem. Trend & Plunge of B    100.59    20.00
     Lower Hem. Trend, Plunge of P,T    209.47    41.64   351.71    41.64
     MRR = 0.00  MTT = 0.12  MPP =-0.12  MRT = 0.92  MRP =-0.17  MTP = 0.32
A angle with plane defined by vertical & B trend:  0.0
 +++++++++++++++++++++++++++++++++++++++++++++++++++++++++++++++++++++++++++++

     Dip,Strike,Rake     90.00   105.88    70.00
     Dip,Strike,Rake     20.00    15.88   180.00   Auxiliary Plane
     Lower Hem. Trend, Plunge of A,N    285.88    70.00   195.88     0.00
     Lower Hem. Trend & Plunge of B    105.88    20.00
     Lower Hem. Trend, Plunge of P,T    214.76    41.64   357.00    41.64
     MRR = 0.00  MTT = 0.18  MPP =-0.18  MRT = 0.90  MRP =-0.26  MTP = 0.29
A angle with plane defined by vertical & B trend:  0.0
 +++++++++++++++++++++++++++++++++++++++++++++++++++++++++++++++++++++++++++++

     Dip,Strike,Rake     85.30   109.46    69.93
     Dip,Strike,Rake     20.59     6.83   166.53   Auxiliary Plane
     Lower Hem. Trend, Plunge of A,N    276.83    69.41    19.46     4.70
     Lower Hem. Trend & Plunge of B    111.18    20.00
     Lower Hem. Trend, Plunge of P,T    217.19    37.16   359.00    46.04
     MRR = 0.15  MTT = 0.08  MPP =-0.23  MRT = 0.88  MRP =-0.28  MTP = 0.31
N angle with plane defined by vertical & B trend: 85.0
 +++++++++++++++++++++++++++++++++++++++++++++++++++++++++++++++++++++++++++++

     Dip,Strike,Rake     85.30   114.76    69.93
     Dip,Strike,Rake     20.59    12.12   166.53   Auxiliary Plane
     Lower Hem. Trend, Plunge of A,N    282.12    69.41    24.76     4.70
     Lower Hem. Trend & Plunge of B    116.47    20.00
     Lower Hem. Trend, Plunge of P,T    222.48    37.16     4.29    46.04
     MRR = 0.15  MTT = 0.13  MPP =-0.29  MRT = 0.85  MRP =-0.36  MTP = 0.28
N angle with plane defined by vertical & B trend: 85.0
 +++++++++++++++++++++++++++++++++++++++++++++++++++++++++++++++++++++++++++++

     Dip,Strike,Rake     80.61   118.31    69.72
     Dip,Strike,Rake     22.27     4.49   154.49   Auxiliary Plane
     Lower Hem. Trend, Plunge of A,N    274.49    67.73    28.31     9.39
     Lower Hem. Trend & Plunge of B    121.76    20.00
     Lower Hem. Trend, Plunge of P,T    225.23    32.61     5.73    50.33
     MRR = 0.30  MTT = 0.05  MPP =-0.35  MRT = 0.81  MRP =-0.37  MTP = 0.31
N angle with plane defined by vertical & B trend: 80.0
 +++++++++++++++++++++++++++++++++++++++++++++++++++++++++++++++++++++++++++++

     Dip,Strike,Rake     22.27   291.98    25.51
     Dip,Strike,Rake     80.61   178.16   110.28   Auxiliary Plane
     Lower Hem. Trend, Plunge of A,N     88.16     9.39   201.98    67.73
     Lower Hem. Trend & Plunge of B    354.71    20.00
     Lower Hem. Trend, Plunge of P,T    251.24    32.61   110.74    50.33
     MRR = 0.30  MTT =-0.02  MPP =-0.28  MRT =-0.03  MRP =-0.89  MTP = 0.35
N angle with plane defined by vertical & B trend: 10.0
 +++++++++++++++++++++++++++++++++++++++++++++++++++++++++++++++++++++++++++++

     Dip,Strike,Rake     25.00   270.00    -0.00
     Dip,Strike,Rake     90.00   180.00   115.00   Auxiliary Plane
     Lower Hem. Trend, Plunge of A,N    270.00     0.00   180.00    65.00
     Lower Hem. Trend & Plunge of B      0.00    25.00
     Lower Hem. Trend, Plunge of P,T    247.09    39.86   112.91    39.86
     MRR = 0.00  MTT = 0.00  MPP = 0.00  MRT = 0.00  MRP =-0.91  MTP = 0.42
N angle with plane defined by vertical & B trend:  0.0
 +++++++++++++++++++++++++++++++++++++++++++++++++++++++++++++++++++++++++++++

     Dip,Strike,Rake     25.46   281.70    10.59
     Dip,Strike,Rake     85.47   182.12   115.08   Auxiliary Plane
     Lower Hem. Trend, Plunge of A,N     92.12     4.53   191.70    64.54
     Lower Hem. Trend & Plunge of B      0.00    25.00
     Lower Hem. Trend, Plunge of P,T    250.47    35.63   116.73    43.97
     MRR = 0.14  MTT = 0.03  MPP =-0.17  MRT =-0.07  MRP =-0.89  MTP = 0.42
N angle with plane defined by vertical & B trend:  5.0
 +++++++++++++++++++++++++++++++++++++++++++++++++++++++++++++++++++++++++++++

     Dip,Strike,Rake     26.81   292.65    20.42
     Dip,Strike,Rake     80.95   184.26   115.34   Auxiliary Plane
     Lower Hem. Trend, Plunge of A,N     94.26     9.05   202.65    63.19
     Lower Hem. Trend & Plunge of B      0.00    25.00
     Lower Hem. Trend, Plunge of P,T    253.52    31.32   121.11    47.94
     MRR = 0.28  MTT = 0.06  MPP =-0.34  MRT =-0.13  MRP =-0.85  MTP = 0.40
N angle with plane defined by vertical & B trend: 10.0
 +++++++++++++++++++++++++++++++++++++++++++++++++++++++++++++++++++++++++++++

     Dip,Strike,Rake     25.46   258.30   -10.59
     Dip,Strike,Rake     85.47   357.88  -115.08   Auxiliary Plane
     Lower Hem. Trend, Plunge of A,N    267.88     4.53   168.30    64.54
     Lower Hem. Trend & Plunge of B      0.00    25.00
     Lower Hem. Trend, Plunge of P,T    243.27    43.97   109.53    35.63
     MRR =-0.14  MTT =-0.03  MPP = 0.17  MRT = 0.07  MRP =-0.89  MTP = 0.42
A angle with plane defined by vertical & B trend: 85.0
 +++++++++++++++++++++++++++++++++++++++++++++++++++++++++++++++++++++++++++++

     Dip,Strike,Rake     25.00   275.54     0.00
     Dip,Strike,Rake     90.00   185.54   115.00   Auxiliary Plane
     Lower Hem. Trend, Plunge of A,N    275.54     0.00   185.54    65.00
     Lower Hem. Trend & Plunge of B      5.54    25.00
     Lower Hem. Trend, Plunge of P,T    252.63    39.86   118.45    39.86
     MRR = 0.00  MTT = 0.08  MPP =-0.08  MRT =-0.09  MRP =-0.90  MTP = 0.41
N angle with plane defined by vertical & B trend:  0.0
 +++++++++++++++++++++++++++++++++++++++++++++++++++++++++++++++++++++++++++++

     Dip,Strike,Rake     25.46   287.23    10.59
     Dip,Strike,Rake     85.47   187.66   115.08   Auxiliary Plane
     Lower Hem. Trend, Plunge of A,N     97.66     4.53   197.23    64.54
     Lower Hem. Trend & Plunge of B      5.54    25.00
     Lower Hem. Trend, Plunge of P,T    256.01    35.63   122.27    43.97
     MRR = 0.14  MTT = 0.11  MPP =-0.25  MRT =-0.15  MRP =-0.88  MTP = 0.39
N angle with plane defined by vertical & B trend:  5.0
 +++++++++++++++++++++++++++++++++++++++++++++++++++++++++++++++++++++++++++++

     Dip,Strike,Rake     26.81   252.89   -20.42
     Dip,Strike,Rake     80.95     1.28  -115.34   Auxiliary Plane
     Lower Hem. Trend, Plunge of A,N    271.28     9.05   162.89    63.19
     Lower Hem. Trend & Plunge of B      5.54    25.00
     Lower Hem. Trend, Plunge of P,T    244.42    47.94   112.02    31.32
     MRR =-0.28  MTT = 0.02  MPP = 0.26  MRT = 0.05  MRP =-0.86  MTP = 0.43
A angle with plane defined by vertical & B trend: 80.0
 +++++++++++++++++++++++++++++++++++++++++++++++++++++++++++++++++++++++++++++

     Dip,Strike,Rake     25.46   263.84   -10.59
     Dip,Strike,Rake     85.47     3.42  -115.08   Auxiliary Plane
     Lower Hem. Trend, Plunge of A,N    273.42     4.53   173.84    64.54
     Lower Hem. Trend & Plunge of B      5.54    25.00
     Lower Hem. Trend, Plunge of P,T    248.81    43.97   115.06    35.63
     MRR =-0.14  MTT = 0.05  MPP = 0.09  MRT =-0.02  MRP =-0.89  MTP = 0.43
A angle with plane defined by vertical & B trend: 85.0
 +++++++++++++++++++++++++++++++++++++++++++++++++++++++++++++++++++++++++++++

     Dip,Strike,Rake     25.00   281.08     0.00
     Dip,Strike,Rake     90.00   191.08   115.00   Auxiliary Plane
     Lower Hem. Trend, Plunge of A,N    281.08     0.00   191.08    65.00
     Lower Hem. Trend & Plunge of B     11.08    25.00
     Lower Hem. Trend, Plunge of P,T    258.17    39.86   123.99    39.86
     MRR = 0.00  MTT = 0.16  MPP =-0.16  MRT =-0.17  MRP =-0.89  MTP = 0.39
N angle with plane defined by vertical & B trend:  0.0
 +++++++++++++++++++++++++++++++++++++++++++++++++++++++++++++++++++++++++++++

     Dip,Strike,Rake     26.81   258.43   -20.42
     Dip,Strike,Rake     80.95     6.82  -115.34   Auxiliary Plane
     Lower Hem. Trend, Plunge of A,N    276.82     9.05   168.43    63.19
     Lower Hem. Trend & Plunge of B     11.08    25.00
     Lower Hem. Trend, Plunge of P,T    249.96    47.94   117.56    31.32
     MRR =-0.28  MTT = 0.10  MPP = 0.18  MRT =-0.04  MRP =-0.86  MTP = 0.44
A angle with plane defined by vertical & B trend: 80.0
 +++++++++++++++++++++++++++++++++++++++++++++++++++++++++++++++++++++++++++++

     Dip,Strike,Rake     25.46   269.38   -10.59
     Dip,Strike,Rake     85.47     8.96  -115.08   Auxiliary Plane
     Lower Hem. Trend, Plunge of A,N    278.96     4.53   179.38    64.54
     Lower Hem. Trend & Plunge of B     11.08    25.00
     Lower Hem. Trend, Plunge of P,T    254.34    43.97   120.60    35.63
     MRR =-0.14  MTT = 0.13  MPP = 0.01  MRT =-0.11  MRP =-0.89  MTP = 0.42
A angle with plane defined by vertical & B trend: 85.0
 +++++++++++++++++++++++++++++++++++++++++++++++++++++++++++++++++++++++++++++

     Dip,Strike,Rake     28.90   254.24   -29.03
     Dip,Strike,Rake     76.43    10.15  -115.77   Auxiliary Plane
     Lower Hem. Trend, Plunge of A,N    280.15    13.57   164.24    61.10
     Lower Hem. Trend & Plunge of B     16.62    25.00
     Lower Hem. Trend, Plunge of P,T    250.41    51.71   120.33    26.95
     MRR =-0.41  MTT = 0.16  MPP = 0.25  MRT =-0.04  MRP =-0.81  MTP = 0.47
A angle with plane defined by vertical & B trend: 75.0
 +++++++++++++++++++++++++++++++++++++++++++++++++++++++++++++++++++++++++++++

     Dip,Strike,Rake     71.94   249.67   -63.61
     Dip,Strike,Rake     31.61    11.66  -143.74   Auxiliary Plane
     Lower Hem. Trend, Plunge of A,N    281.66    58.39   159.67    18.06
     Lower Hem. Trend & Plunge of B     60.92    25.00
     Lower Hem. Trend, Plunge of P,T    193.11    55.22   319.77    22.52
     MRR =-0.53  MTT = 0.19  MPP = 0.34  MRT = 0.73  MRP = 0.12  MTP = 0.49
A angle with plane defined by vertical & B trend: 20.0
 +++++++++++++++++++++++++++++++++++++++++++++++++++++++++++++++++++++++++++++

     Dip,Strike,Rake     76.43   252.92   -64.23
     Dip,Strike,Rake     28.90     8.84  -150.97   Auxiliary Plane
     Lower Hem. Trend, Plunge of A,N    278.84    61.10   162.92    13.57
     Lower Hem. Trend & Plunge of B     66.46    25.00
     Lower Hem. Trend, Plunge of P,T    192.67    51.71   322.75    26.95
     MRR =-0.41  MTT = 0.14  MPP = 0.27  MRT = 0.80  MRP = 0.14  MTP = 0.47
A angle with plane defined by vertical & B trend: 15.0
 +++++++++++++++++++++++++++++++++++++++++++++++++++++++++++++++++++++++++++++

     Dip,Strike,Rake     80.95   256.26   -64.66
     Dip,Strike,Rake     26.81     4.65  -159.58   Auxiliary Plane
     Lower Hem. Trend, Plunge of A,N    274.65    63.19   166.26     9.05
     Lower Hem. Trend & Plunge of B     72.00    25.00
     Lower Hem. Trend, Plunge of P,T    193.11    47.94   325.52    31.32
     MRR =-0.28  MTT = 0.07  MPP = 0.21  MRT = 0.85  MRP = 0.14  MTP = 0.44
A angle with plane defined by vertical & B trend: 10.0
 +++++++++++++++++++++++++++++++++++++++++++++++++++++++++++++++++++++++++++++

     Dip,Strike,Rake     76.43   258.46   -64.23
     Dip,Strike,Rake     28.90    14.38  -150.97   Auxiliary Plane
     Lower Hem. Trend, Plunge of A,N    284.38    61.10   168.46    13.57
     Lower Hem. Trend & Plunge of B     72.00    25.00
     Lower Hem. Trend, Plunge of P,T    198.20    51.71   328.29    26.95
     MRR =-0.41  MTT = 0.23  MPP = 0.18  MRT = 0.81  MRP = 0.06  MTP = 0.47
A angle with plane defined by vertical & B trend: 15.0
 +++++++++++++++++++++++++++++++++++++++++++++++++++++++++++++++++++++++++++++

     Dip,Strike,Rake     80.95   261.80   -64.66
     Dip,Strike,Rake     26.81    10.19  -159.58   Auxiliary Plane
     Lower Hem. Trend, Plunge of A,N    280.19    63.19   171.80     9.05
     Lower Hem. Trend & Plunge of B     77.54    25.00
     Lower Hem. Trend, Plunge of P,T    198.65    47.94   331.05    31.32
     MRR =-0.28  MTT = 0.16  MPP = 0.13  MRT = 0.86  MRP = 0.06  MTP = 0.45
A angle with plane defined by vertical & B trend: 10.0
 +++++++++++++++++++++++++++++++++++++++++++++++++++++++++++++++++++++++++++++

     Dip,Strike,Rake     85.47   265.19   -64.92
     Dip,Strike,Rake     25.46     4.77  -169.41   Auxiliary Plane
     Lower Hem. Trend, Plunge of A,N    274.77    64.54   175.19     4.53
     Lower Hem. Trend & Plunge of B     83.08    25.00
     Lower Hem. Trend, Plunge of P,T    199.81    43.97   333.55    35.63
     MRR =-0.14  MTT = 0.07  MPP = 0.07  MRT = 0.89  MRP = 0.04  MTP = 0.43
A angle with plane defined by vertical & B trend:  5.0
 +++++++++++++++++++++++++++++++++++++++++++++++++++++++++++++++++++++++++++++

     Dip,Strike,Rake     80.95   267.34   -64.66
     Dip,Strike,Rake     26.81    15.72  -159.58   Auxiliary Plane
     Lower Hem. Trend, Plunge of A,N    285.72    63.19   177.34     9.05
     Lower Hem. Trend & Plunge of B     83.08    25.00
     Lower Hem. Trend, Plunge of P,T    204.19    47.94   336.59    31.32
     MRR =-0.28  MTT = 0.24  MPP = 0.04  MRT = 0.86  MRP =-0.03  MTP = 0.43
A angle with plane defined by vertical & B trend: 10.0
 +++++++++++++++++++++++++++++++++++++++++++++++++++++++++++++++++++++++++++++

     Dip,Strike,Rake     85.47   270.73   -64.92
     Dip,Strike,Rake     25.46    10.31  -169.41   Auxiliary Plane
     Lower Hem. Trend, Plunge of A,N    280.31    64.54   180.73     4.53
     Lower Hem. Trend & Plunge of B     88.62    25.00
     Lower Hem. Trend, Plunge of P,T    205.35    43.97   339.09    35.63
     MRR =-0.14  MTT = 0.15  MPP =-0.01  MRT = 0.89  MRP =-0.04  MTP = 0.42
A angle with plane defined by vertical & B trend:  5.0
 +++++++++++++++++++++++++++++++++++++++++++++++++++++++++++++++++++++++++++++

     Dip,Strike,Rake     90.00    94.15    65.00
     Dip,Strike,Rake     25.00     4.15   180.00   Auxiliary Plane
     Lower Hem. Trend, Plunge of A,N    274.15    65.00   184.15     0.00
     Lower Hem. Trend & Plunge of B     94.15    25.00
     Lower Hem. Trend, Plunge of P,T    207.06    39.86   341.24    39.86
     MRR = 0.00  MTT = 0.06  MPP =-0.06  MRT = 0.90  MRP =-0.07  MTP = 0.42
A angle with plane defined by vertical & B trend:  0.0
 +++++++++++++++++++++++++++++++++++++++++++++++++++++++++++++++++++++++++++++

     Dip,Strike,Rake     85.47   276.27   -64.92
     Dip,Strike,Rake     25.46    15.85  -169.41   Auxiliary Plane
     Lower Hem. Trend, Plunge of A,N    285.85    64.54   186.27     4.53
     Lower Hem. Trend & Plunge of B     94.15    25.00
     Lower Hem. Trend, Plunge of P,T    210.89    43.97   344.63    35.63
     MRR =-0.14  MTT = 0.23  MPP =-0.09  MRT = 0.89  MRP =-0.13  MTP = 0.40
A angle with plane defined by vertical & B trend:  5.0
 +++++++++++++++++++++++++++++++++++++++++++++++++++++++++++++++++++++++++++++

     Dip,Strike,Rake     90.00    99.69    65.00
     Dip,Strike,Rake     25.00     9.69   180.00   Auxiliary Plane
     Lower Hem. Trend, Plunge of A,N    279.69    65.00   189.69     0.00
     Lower Hem. Trend & Plunge of B     99.69    25.00
     Lower Hem. Trend, Plunge of P,T    212.60    39.86   346.78    39.86
     MRR = 0.00  MTT = 0.14  MPP =-0.14  MRT = 0.89  MRP =-0.15  MTP = 0.40
A angle with plane defined by vertical & B trend:  0.0
 +++++++++++++++++++++++++++++++++++++++++++++++++++++++++++++++++++++++++++++

     Dip,Strike,Rake     90.00   105.23    65.00
     Dip,Strike,Rake     25.00    15.23   180.00   Auxiliary Plane
     Lower Hem. Trend, Plunge of A,N    285.23    65.00   195.23     0.00
     Lower Hem. Trend & Plunge of B    105.23    25.00
     Lower Hem. Trend, Plunge of P,T    218.14    39.86   352.32    39.86
     MRR = 0.00  MTT = 0.21  MPP =-0.21  MRT = 0.87  MRP =-0.24  MTP = 0.36
A angle with plane defined by vertical & B trend:  0.0
 +++++++++++++++++++++++++++++++++++++++++++++++++++++++++++++++++++++++++++++

     Dip,Strike,Rake     85.47   103.11    64.92
     Dip,Strike,Rake     25.46     3.53   169.41   Auxiliary Plane
     Lower Hem. Trend, Plunge of A,N    273.53    64.54    13.11     4.53
     Lower Hem. Trend & Plunge of B    105.23    25.00
     Lower Hem. Trend, Plunge of P,T    214.76    35.63   348.50    43.97
     MRR = 0.14  MTT = 0.05  MPP =-0.19  MRT = 0.88  MRP =-0.17  MTP = 0.41
N angle with plane defined by vertical & B trend: 85.0
 +++++++++++++++++++++++++++++++++++++++++++++++++++++++++++++++++++++++++++++

     Dip,Strike,Rake     85.47   108.65    64.92
     Dip,Strike,Rake     25.46     9.07   169.41   Auxiliary Plane
     Lower Hem. Trend, Plunge of A,N    279.07    64.54    18.65     4.53
     Lower Hem. Trend & Plunge of B    110.77    25.00
     Lower Hem. Trend, Plunge of P,T    220.29    35.63   354.04    43.97
     MRR = 0.14  MTT = 0.13  MPP =-0.27  MRT = 0.86  MRP =-0.25  MTP = 0.38
N angle with plane defined by vertical & B trend: 85.0
 +++++++++++++++++++++++++++++++++++++++++++++++++++++++++++++++++++++++++++++

     Dip,Strike,Rake     80.95   112.05    64.66
     Dip,Strike,Rake     26.81     3.66   159.58   Auxiliary Plane
     Lower Hem. Trend, Plunge of A,N    273.66    63.19    22.05     9.05
     Lower Hem. Trend & Plunge of B    116.31    25.00
     Lower Hem. Trend, Plunge of P,T    222.79    31.32   355.19    47.94
     MRR = 0.28  MTT = 0.05  MPP =-0.33  MRT = 0.82  MRP =-0.26  MTP = 0.40
N angle with plane defined by vertical & B trend: 80.0
 +++++++++++++++++++++++++++++++++++++++++++++++++++++++++++++++++++++++++++++

     Dip,Strike,Rake     85.47   114.19    64.92
     Dip,Strike,Rake     25.46    14.61   169.41   Auxiliary Plane
     Lower Hem. Trend, Plunge of A,N    284.61    64.54    24.19     4.53
     Lower Hem. Trend & Plunge of B    116.31    25.00
     Lower Hem. Trend, Plunge of P,T    225.83    35.63   359.58    43.97
     MRR = 0.14  MTT = 0.20  MPP =-0.34  MRT = 0.83  MRP =-0.34  MTP = 0.33
N angle with plane defined by vertical & B trend: 85.0
 +++++++++++++++++++++++++++++++++++++++++++++++++++++++++++++++++++++++++++++

     Dip,Strike,Rake     80.95   117.58    64.66
     Dip,Strike,Rake     26.81     9.20   159.58   Auxiliary Plane
     Lower Hem. Trend, Plunge of A,N    279.20    63.19    27.58     9.05
     Lower Hem. Trend & Plunge of B    121.85    25.00
     Lower Hem. Trend, Plunge of P,T    228.33    31.32     0.73    47.94
     MRR = 0.28  MTT = 0.13  MPP =-0.41  MRT = 0.79  MRP =-0.34  MTP = 0.36
N angle with plane defined by vertical & B trend: 80.0
 +++++++++++++++++++++++++++++++++++++++++++++++++++++++++++++++++++++++++++++

     Dip,Strike,Rake     26.81   287.11    20.42
     Dip,Strike,Rake     80.95   178.72   115.34   Auxiliary Plane
     Lower Hem. Trend, Plunge of A,N     88.72     9.05   197.11    63.19
     Lower Hem. Trend & Plunge of B    354.46    25.00
     Lower Hem. Trend, Plunge of P,T    247.98    31.32   115.58    47.94
     MRR = 0.28  MTT =-0.02  MPP =-0.26  MRT =-0.05  MRP =-0.86  MTP = 0.43
N angle with plane defined by vertical & B trend: 10.0
 +++++++++++++++++++++++++++++++++++++++++++++++++++++++++++++++++++++++++++++

     Dip,Strike,Rake     28.90   296.84    29.03
     Dip,Strike,Rake     76.43   180.92   115.77   Auxiliary Plane
     Lower Hem. Trend, Plunge of A,N     90.92    13.57   206.84    61.10
     Lower Hem. Trend & Plunge of B    354.46    25.00
     Lower Hem. Trend, Plunge of P,T    250.75    26.95   120.67    51.71
     MRR = 0.41  MTT = 0.01  MPP =-0.42  MRT =-0.11  MRP =-0.80  MTP = 0.42
N angle with plane defined by vertical & B trend: 15.0
 +++++++++++++++++++++++++++++++++++++++++++++++++++++++++++++++++++++++++++++

     Dip,Strike,Rake     30.00   270.00    -0.00
     Dip,Strike,Rake     90.00   180.00   120.00   Auxiliary Plane
     Lower Hem. Trend, Plunge of A,N    270.00     0.00   180.00    60.00
     Lower Hem. Trend & Plunge of B      0.00    30.00
     Lower Hem. Trend, Plunge of P,T    243.43    37.76   116.57    37.76
     MRR = 0.00  MTT = 0.00  MPP = 0.00  MRT = 0.00  MRP =-0.87  MTP = 0.50
N angle with plane defined by vertical & B trend:  0.0
 +++++++++++++++++++++++++++++++++++++++++++++++++++++++++++++++++++++++++++++

     Dip,Strike,Rake     30.38   279.92     8.58
     Dip,Strike,Rake     85.67   182.50   120.09   Auxiliary Plane
     Lower Hem. Trend, Plunge of A,N     92.50     4.33   189.92    59.62
     Lower Hem. Trend & Plunge of B      0.00    30.00
     Lower Hem. Trend, Plunge of P,T    247.24    33.83   120.79    41.56
     MRR = 0.13  MTT = 0.04  MPP =-0.17  MRT =-0.08  MRP =-0.85  MTP = 0.49
N angle with plane defined by vertical & B trend:  5.0
 +++++++++++++++++++++++++++++++++++++++++++++++++++++++++++++++++++++++++++++

     Dip,Strike,Rake     31.47   289.43    16.74
     Dip,Strike,Rake     81.35   185.04   120.38   Auxiliary Plane
     Lower Hem. Trend, Plunge of A,N     95.04     8.65   199.43    58.53
     Lower Hem. Trend & Plunge of B      0.00    30.00
     Lower Hem. Trend, Plunge of P,T    250.70    29.78   125.53    45.19
     MRR = 0.26  MTT = 0.09  MPP =-0.34  MRT =-0.15  MRP =-0.81  MTP = 0.47
N angle with plane defined by vertical & B trend: 10.0
 +++++++++++++++++++++++++++++++++++++++++++++++++++++++++++++++++++++++++++++

     Dip,Strike,Rake     33.23   298.19    24.15
     Dip,Strike,Rake     77.05   187.63   120.87   Auxiliary Plane
     Lower Hem. Trend, Plunge of A,N     97.63    12.95   208.19    56.77
     Lower Hem. Trend & Plunge of B      0.00    30.00
     Lower Hem. Trend, Plunge of P,T    253.90    25.66   130.89    48.59
     MRR = 0.38  MTT = 0.12  MPP =-0.50  MRT =-0.22  MRP =-0.75  MTP = 0.43
N angle with plane defined by vertical & B trend: 15.0
 +++++++++++++++++++++++++++++++++++++++++++++++++++++++++++++++++++++++++++++

     Dip,Strike,Rake     30.00   275.81     0.00
     Dip,Strike,Rake     90.00   185.81   120.00   Auxiliary Plane
     Lower Hem. Trend, Plunge of A,N    275.81     0.00   185.81    60.00
     Lower Hem. Trend & Plunge of B      5.81    30.00
     Lower Hem. Trend, Plunge of P,T    249.24    37.76   122.37    37.76
     MRR = 0.00  MTT = 0.10  MPP =-0.10  MRT =-0.09  MRP =-0.86  MTP = 0.49
N angle with plane defined by vertical & B trend:  0.0
 +++++++++++++++++++++++++++++++++++++++++++++++++++++++++++++++++++++++++++++

     Dip,Strike,Rake     30.38   285.73     8.58
     Dip,Strike,Rake     85.67   188.31   120.09   Auxiliary Plane
     Lower Hem. Trend, Plunge of A,N     98.31     4.33   195.73    59.62
     Lower Hem. Trend & Plunge of B      5.81    30.00
     Lower Hem. Trend, Plunge of P,T    253.05    33.83   126.60    41.56
     MRR = 0.13  MTT = 0.14  MPP =-0.27  MRT =-0.16  MRP =-0.84  MTP = 0.46
N angle with plane defined by vertical & B trend:  5.0
 +++++++++++++++++++++++++++++++++++++++++++++++++++++++++++++++++++++++++++++

     Dip,Strike,Rake     31.47   295.23    16.74
     Dip,Strike,Rake     81.35   190.84   120.38   Auxiliary Plane
     Lower Hem. Trend, Plunge of A,N    100.84     8.65   205.23    58.53
     Lower Hem. Trend & Plunge of B      5.81    30.00
     Lower Hem. Trend, Plunge of P,T    256.51    29.78   131.34    45.19
     MRR = 0.26  MTT = 0.18  MPP =-0.43  MRT =-0.23  MRP =-0.79  MTP = 0.42
N angle with plane defined by vertical & B trend: 10.0
 +++++++++++++++++++++++++++++++++++++++++++++++++++++++++++++++++++++++++++++

     Dip,Strike,Rake     31.47   256.38   -16.74
     Dip,Strike,Rake     81.35     0.77  -120.38   Auxiliary Plane
     Lower Hem. Trend, Plunge of A,N    270.77     8.65   166.38    58.53
     Lower Hem. Trend & Plunge of B      5.81    30.00
     Lower Hem. Trend, Plunge of P,T    240.28    45.19   115.10    29.78
     MRR =-0.26  MTT = 0.01  MPP = 0.24  MRT = 0.07  MRP =-0.82  MTP = 0.50
A angle with plane defined by vertical & B trend: 80.0
 +++++++++++++++++++++++++++++++++++++++++++++++++++++++++++++++++++++++++++++

     Dip,Strike,Rake     30.38   265.88    -8.58
     Dip,Strike,Rake     85.67     3.30  -120.09   Auxiliary Plane
     Lower Hem. Trend, Plunge of A,N    273.30     4.33   175.88    59.62
     Lower Hem. Trend & Plunge of B      5.81    30.00
     Lower Hem. Trend, Plunge of P,T    245.02    41.56   118.57    33.83
     MRR =-0.13  MTT = 0.06  MPP = 0.07  MRT =-0.01  MRP =-0.86  MTP = 0.50
A angle with plane defined by vertical & B trend: 85.0
 +++++++++++++++++++++++++++++++++++++++++++++++++++++++++++++++++++++++++++++

     Dip,Strike,Rake     33.23   253.43   -24.15
     Dip,Strike,Rake     77.05     3.98  -120.87   Auxiliary Plane
     Lower Hem. Trend, Plunge of A,N    273.98    12.95   163.43    56.77
     Lower Hem. Trend & Plunge of B     11.61    30.00
     Lower Hem. Trend, Plunge of P,T    240.72    48.59   117.72    25.66
     MRR =-0.37  MTT = 0.07  MPP = 0.30  MRT = 0.06  MRP =-0.78  MTP = 0.52
A angle with plane defined by vertical & B trend: 75.0
 +++++++++++++++++++++++++++++++++++++++++++++++++++++++++++++++++++++++++++++

     Dip,Strike,Rake     31.47   262.19   -16.74
     Dip,Strike,Rake     81.35     6.57  -120.38   Auxiliary Plane
     Lower Hem. Trend, Plunge of A,N    276.57     8.65   172.19    58.53
     Lower Hem. Trend & Plunge of B     11.61    30.00
     Lower Hem. Trend, Plunge of P,T    246.08    45.19   120.91    29.78
     MRR =-0.26  MTT = 0.12  MPP = 0.14  MRT =-0.02  MRP =-0.83  MTP = 0.52
A angle with plane defined by vertical & B trend: 80.0
 +++++++++++++++++++++++++++++++++++++++++++++++++++++++++++++++++++++++++++++

     Dip,Strike,Rake     30.38   271.69    -8.58
     Dip,Strike,Rake     85.67     9.11  -120.09   Auxiliary Plane
     Lower Hem. Trend, Plunge of A,N    279.11     4.33   181.69    59.62
     Lower Hem. Trend & Plunge of B     11.61    30.00
     Lower Hem. Trend, Plunge of P,T    250.82    41.56   124.37    33.83
     MRR =-0.13  MTT = 0.16  MPP =-0.03  MRT =-0.10  MRP =-0.85  MTP = 0.50
A angle with plane defined by vertical & B trend: 85.0
 +++++++++++++++++++++++++++++++++++++++++++++++++++++++++++++++++++++++++++++

     Dip,Strike,Rake     35.53   251.37   -30.64
     Dip,Strike,Rake     72.77     7.11  -121.57   Auxiliary Plane
     Lower Hem. Trend, Plunge of A,N    277.11    17.23   161.37    54.47
     Lower Hem. Trend & Plunge of B     17.42    30.00
     Lower Hem. Trend, Plunge of P,T    240.42    51.71   120.54    21.47
     MRR =-0.48  MTT = 0.13  MPP = 0.35  MRT = 0.07  MRP =-0.72  MTP = 0.54
A angle with plane defined by vertical & B trend: 70.0
 +++++++++++++++++++++++++++++++++++++++++++++++++++++++++++++++++++++++++++++

     Dip,Strike,Rake     33.23   259.23   -24.15
     Dip,Strike,Rake     77.05     9.79  -120.87   Auxiliary Plane
     Lower Hem. Trend, Plunge of A,N    279.79    12.95   169.23    56.77
     Lower Hem. Trend & Plunge of B     17.42    30.00
     Lower Hem. Trend, Plunge of P,T    246.53    48.59   123.52    25.66
     MRR =-0.37  MTT = 0.18  MPP = 0.20  MRT =-0.02  MRP =-0.78  MTP = 0.53
A angle with plane defined by vertical & B trend: 75.0
 +++++++++++++++++++++++++++++++++++++++++++++++++++++++++++++++++++++++++++++

     Dip,Strike,Rake     72.77   248.38   -58.43
     Dip,Strike,Rake     35.53     4.12  -149.36   Auxiliary Plane
     Lower Hem. Trend, Plunge of A,N    274.12    54.47   158.38    17.23
     Lower Hem. Trend & Plunge of B     58.06    30.00
     Lower Hem. Trend, Plunge of P,T    195.06    51.71   314.94    21.47
     MRR =-0.48  MTT = 0.07  MPP = 0.41  MRT = 0.71  MRP = 0.11  MTP = 0.53
A angle with plane defined by vertical & B trend: 20.0
 +++++++++++++++++++++++++++++++++++++++++++++++++++++++++++++++++++++++++++++

     Dip,Strike,Rake     68.53   251.19   -57.50
     Dip,Strike,Rake     38.29    11.07  -143.80   Auxiliary Plane
     Lower Hem. Trend, Plunge of A,N    281.07    51.71   161.19    21.47
     Lower Hem. Trend & Plunge of B     58.06    30.00
     Lower Hem. Trend, Plunge of P,T    202.01    54.47   317.75    17.23
     MRR =-0.57  MTT = 0.21  MPP = 0.36  MRT = 0.65  MRP = 0.01  MTP = 0.57
A angle with plane defined by vertical & B trend: 25.0
 +++++++++++++++++++++++++++++++++++++++++++++++++++++++++++++++++++++++++++++

     Dip,Strike,Rake     77.05   251.50   -59.13
     Dip,Strike,Rake     33.23     2.06  -155.85   Auxiliary Plane
     Lower Hem. Trend, Plunge of A,N    272.06    56.77   161.50    12.95
     Lower Hem. Trend & Plunge of B     63.87    30.00
     Lower Hem. Trend, Plunge of P,T    194.76    48.59   317.77    25.66
     MRR =-0.37  MTT = 0.04  MPP = 0.34  MRT = 0.77  MRP = 0.14  MTP = 0.51
A angle with plane defined by vertical & B trend: 15.0
 +++++++++++++++++++++++++++++++++++++++++++++++++++++++++++++++++++++++++++++

     Dip,Strike,Rake     72.77   254.19   -58.43
     Dip,Strike,Rake     35.53     9.92  -149.36   Auxiliary Plane
     Lower Hem. Trend, Plunge of A,N    279.92    54.47   164.19    17.23
     Lower Hem. Trend & Plunge of B     63.87    30.00
     Lower Hem. Trend, Plunge of P,T    200.87    51.71   320.75    21.47
     MRR =-0.48  MTT = 0.18  MPP = 0.30  MRT = 0.72  MRP = 0.04  MTP = 0.55
A angle with plane defined by vertical & B trend: 20.0
 +++++++++++++++++++++++++++++++++++++++++++++++++++++++++++++++++++++++++++++

     Dip,Strike,Rake     77.05   257.31   -59.13
     Dip,Strike,Rake     33.23     7.86  -155.85   Auxiliary Plane
     Lower Hem. Trend, Plunge of A,N    277.86    56.77   167.31    12.95
     Lower Hem. Trend & Plunge of B     69.68    30.00
     Lower Hem. Trend, Plunge of P,T    200.57    48.59   323.58    25.66
     MRR =-0.37  MTT = 0.14  MPP = 0.23  MRT = 0.78  MRP = 0.06  MTP = 0.53
A angle with plane defined by vertical & B trend: 15.0
 +++++++++++++++++++++++++++++++++++++++++++++++++++++++++++++++++++++++++++++

     Dip,Strike,Rake     72.77   259.99   -58.43
     Dip,Strike,Rake     35.53    15.73  -149.36   Auxiliary Plane
     Lower Hem. Trend, Plunge of A,N    285.73    54.47   169.99    17.23
     Lower Hem. Trend & Plunge of B     69.68    30.00
     Lower Hem. Trend, Plunge of P,T    206.67    51.71   326.55    21.47
     MRR =-0.48  MTT = 0.30  MPP = 0.19  MRT = 0.72  MRP =-0.03  MTP = 0.55
A angle with plane defined by vertical & B trend: 20.0
 +++++++++++++++++++++++++++++++++++++++++++++++++++++++++++++++++++++++++++++

     Dip,Strike,Rake     81.35   260.52   -59.62
     Dip,Strike,Rake     31.47     4.91  -163.26   Auxiliary Plane
     Lower Hem. Trend, Plunge of A,N    274.91    58.53   170.52     8.65
     Lower Hem. Trend & Plunge of B     75.48    30.00
     Lower Hem. Trend, Plunge of P,T    201.01    45.19   326.19    29.78
     MRR =-0.26  MTT = 0.09  MPP = 0.17  MRT = 0.82  MRP = 0.06  MTP = 0.51
A angle with plane defined by vertical & B trend: 10.0
 +++++++++++++++++++++++++++++++++++++++++++++++++++++++++++++++++++++++++++++

     Dip,Strike,Rake     77.05   263.11   -59.13
     Dip,Strike,Rake     33.23    13.67  -155.85   Auxiliary Plane
     Lower Hem. Trend, Plunge of A,N    283.67    56.77   173.11    12.95
     Lower Hem. Trend & Plunge of B     75.48    30.00
     Lower Hem. Trend, Plunge of P,T    206.38    48.59   329.38    25.66
     MRR =-0.37  MTT = 0.25  MPP = 0.12  MRT = 0.78  MRP =-0.02  MTP = 0.53
A angle with plane defined by vertical & B trend: 15.0
 +++++++++++++++++++++++++++++++++++++++++++++++++++++++++++++++++++++++++++++

     Dip,Strike,Rake     81.35   266.33   -59.62
     Dip,Strike,Rake     31.47    10.72  -163.26   Auxiliary Plane
     Lower Hem. Trend, Plunge of A,N    280.72    58.53   176.33     8.65
     Lower Hem. Trend & Plunge of B     81.29    30.00
     Lower Hem. Trend, Plunge of P,T    206.82    45.19   331.99    29.78
     MRR =-0.26  MTT = 0.19  MPP = 0.06  MRT = 0.83  MRP =-0.02  MTP = 0.51
A angle with plane defined by vertical & B trend: 10.0
 +++++++++++++++++++++++++++++++++++++++++++++++++++++++++++++++++++++++++++++

     Dip,Strike,Rake     85.67   269.60   -59.91
     Dip,Strike,Rake     30.38     7.02  -171.42   Auxiliary Plane
     Lower Hem. Trend, Plunge of A,N    277.02    59.62   179.60     4.33
     Lower Hem. Trend & Plunge of B     87.10    30.00
     Lower Hem. Trend, Plunge of P,T    207.89    41.56   334.34    33.83
     MRR =-0.13  MTT = 0.12  MPP = 0.01  MRT = 0.86  MRP =-0.03  MTP = 0.50
A angle with plane defined by vertical & B trend:  5.0
 +++++++++++++++++++++++++++++++++++++++++++++++++++++++++++++++++++++++++++++

     Dip,Strike,Rake     81.35   272.14   -59.62
     Dip,Strike,Rake     31.47    16.52  -163.26   Auxiliary Plane
     Lower Hem. Trend, Plunge of A,N    286.52    58.53   182.14     8.65
     Lower Hem. Trend & Plunge of B     87.10    30.00
     Lower Hem. Trend, Plunge of P,T    212.63    45.19   337.80    29.78
     MRR =-0.26  MTT = 0.29  MPP =-0.04  MRT = 0.82  MRP =-0.11  MTP = 0.49
A angle with plane defined by vertical & B trend: 10.0
 +++++++++++++++++++++++++++++++++++++++++++++++++++++++++++++++++++++++++++++

     Dip,Strike,Rake     90.00    92.90    60.00
     Dip,Strike,Rake     30.00     2.90   180.00   Auxiliary Plane
     Lower Hem. Trend, Plunge of A,N    272.90    60.00   182.90     0.00
     Lower Hem. Trend & Plunge of B     92.90    30.00
     Lower Hem. Trend, Plunge of P,T    209.47    37.76   336.34    37.76
     MRR = 0.00  MTT = 0.05  MPP =-0.05  MRT = 0.86  MRP =-0.04  MTP = 0.50
A angle with plane defined by vertical & B trend:  0.0
 +++++++++++++++++++++++++++++++++++++++++++++++++++++++++++++++++++++++++++++

     Dip,Strike,Rake     85.67   275.41   -59.91
     Dip,Strike,Rake     30.38    12.83  -171.42   Auxiliary Plane
     Lower Hem. Trend, Plunge of A,N    282.83    59.62   185.41     4.33
     Lower Hem. Trend & Plunge of B     92.90    30.00
     Lower Hem. Trend, Plunge of P,T    213.69    41.56   340.14    33.83
     MRR =-0.13  MTT = 0.22  MPP =-0.09  MRT = 0.85  MRP =-0.12  MTP = 0.48
A angle with plane defined by vertical & B trend:  5.0
 +++++++++++++++++++++++++++++++++++++++++++++++++++++++++++++++++++++++++++++

     Dip,Strike,Rake     90.00    98.71    60.00
     Dip,Strike,Rake     30.00     8.71   180.00   Auxiliary Plane
     Lower Hem. Trend, Plunge of A,N    278.71    60.00   188.71     0.00
     Lower Hem. Trend & Plunge of B     98.71    30.00
     Lower Hem. Trend, Plunge of P,T    215.27    37.76   342.14    37.76
     MRR = 0.00  MTT = 0.15  MPP =-0.15  MRT = 0.86  MRP =-0.13  MTP = 0.48
A angle with plane defined by vertical & B trend:  0.0
 +++++++++++++++++++++++++++++++++++++++++++++++++++++++++++++++++++++++++++++

     Dip,Strike,Rake     90.00   104.52    60.00
     Dip,Strike,Rake     30.00    14.52   180.00   Auxiliary Plane
     Lower Hem. Trend, Plunge of A,N    284.52    60.00   194.52     0.00
     Lower Hem. Trend & Plunge of B    104.52    30.00
     Lower Hem. Trend, Plunge of P,T    221.08    37.76   347.95    37.76
     MRR = 0.00  MTT = 0.24  MPP =-0.24  MRT = 0.84  MRP =-0.22  MTP = 0.44
A angle with plane defined by vertical & B trend:  0.0
 +++++++++++++++++++++++++++++++++++++++++++++++++++++++++++++++++++++++++++++

     Dip,Strike,Rake     85.67   102.01    59.91
     Dip,Strike,Rake     30.38     4.59   171.42   Auxiliary Plane
     Lower Hem. Trend, Plunge of A,N    274.59    59.62    12.01     4.33
     Lower Hem. Trend & Plunge of B    104.52    30.00
     Lower Hem. Trend, Plunge of P,T    217.28    33.83   343.73    41.56
     MRR = 0.13  MTT = 0.08  MPP =-0.21  MRT = 0.84  MRP =-0.14  MTP = 0.48
N angle with plane defined by vertical & B trend: 85.0
 +++++++++++++++++++++++++++++++++++++++++++++++++++++++++++++++++++++++++++++

 Reached chosen maximum of  100 solutions

 There are 100 acceptable solutions
