&input
nc=4,nfreq=1024,tl=80,aw=2,nr=83,ns=1,xl=1000000,ikmax=100000,
latlon=.false.,freesurface=.true.,sourcefile="source.tsv",statfile="station.tsv"
//
5000.0	5500.0	3142.9	2669.6	60.0	60.0
23750.0	5850.0	3342.9	2711.1	60.0	60.0
10420.0	6500.0	3714.3	2783.5	60.0	60.0
6371000.0	8180.0	4674.3	2948.2	60.0	60.0
